Used arguments:
	>  batch_size :  16
	>  epochs :  5
	>  lr :  1e-05
	>  lr_min :  1e-10
	>  cp :  ./experiments/all/checkpoint.pt
	>  dataroot :  /datasets/SHIFT/discrete-semseg
	>  num_classes :  12
	>  weather :  []
	>  timeofday :  []
	>  class_config :  12_pedestrian_ood
	>  dataset :  shift_nopedestrian
	>  max_val_steps :  1000.0
	>  workers :  1
	>  neg_dataroot :  /datasets/GeneralDatabases/ADEChallengeData2016
	>  paste_outliers :  True
	>  paste_outliers_val :  False
	>  rect_ood_prob :  0.0
	>  alpha_blend :  0.9
	>  paste_lower :  0
	>  neg_dataset :  ade_small
	>  horizon :  0.33
	>  max_ood_size :  192
	>  beta :  [0.01, 0.005, 0.02]
	>  wresnet_dir :  
	>  pretrained_weights :  ./weights/nopedestrian_12.pth
Current commit: 318f56892c2840f5fbf795b4755adb8f42259634 on branch refs/heads/master

Created save directory.
Loaded 23037 train and 11961 val images for class configuration: 12_pedestrian_ood.
> Loaded 489 negative images.
Loaded model pretrained

EPOCH 1
 > LR set to (1.00E-05, 2.50E-06, )
-- Average train loss: 0.09
-- Train mIoU: 82.43%
++ Average precision: 29.4%
++ AUROC: 97.38%
++ FPR: 7.93%
++ Average validation loss: 0.14
++ Average validation accuracy: 93.2%
++ Validation mIoU: 76.31
>> Epoch 1: Saved best model so far.
>> Epoch 1: Saved model.

EPOCH 2
 > LR set to (8.54E-06, 2.13E-06, )
-- Average train loss: 0.08
-- Train mIoU: 82.35%
++ Average precision: 31.22%
++ AUROC: 97.02%
++ FPR: 9.28%
++ Average validation loss: 0.14
++ Average validation accuracy: 93.31%
++ Validation mIoU: 77.02
>> Epoch 2: Saved best model so far.
>> Epoch 2: Saved model.
<< Removed weights of epoch 1

EPOCH 3
 > LR set to (5.00E-06, 1.25E-06, )
-- Average train loss: 0.08
-- Train mIoU: 82.67%
++ Average precision: 31.1%
++ AUROC: 96.89%
++ FPR: 9.78%
++ Average validation loss: 0.13
++ Average validation accuracy: 93.47%
++ Validation mIoU: 77.35
>> Epoch 3: Saved best model so far.
>> Epoch 3: Saved model.
<< Removed weights of epoch 2

EPOCH 4
 > LR set to (1.46E-06, 3.66E-07, )
-- Average train loss: 0.08
-- Train mIoU: 82.75%
++ Average precision: 30.07%
++ AUROC: 96.36%
++ FPR: 11.67%
++ Average validation loss: 0.13
++ Average validation accuracy: 93.46%
++ Validation mIoU: 77.43
>> Epoch 4: Saved best model so far.
>> Epoch 4: Saved model.
<< Removed weights of epoch 3

EPOCH 5
 > LR set to (1.00E-10, 2.50E-11, )
-- Average train loss: 0.08
-- Train mIoU: 82.8%
++ Average precision: 29.16%
++ AUROC: 96.22%
++ FPR: 11.92%
++ Average validation loss: 0.13
++ Average validation accuracy: 93.51%
++ Validation mIoU: 77.5
>> Epoch 5: Saved best model so far.
>> Epoch 5: Saved model.
<< Removed weights of epoch 4

Elapsed time: 29834.920249938965
