Used arguments:
	>  batch_size :  16
	>  epochs :  10
	>  lr :  1e-06
	>  lr_min :  1e-08
	>  cp :  ./all_noblend/checkpoint.pt
	>  dataroot :  /datasets/SHIFT/discrete-semseg
	>  num_classes :  12
	>  weather :  []
	>  timeofday :  []
	>  class_config :  12_pedestrian_ood
	>  dataset :  shift_nopedestrian
	>  max_val_steps :  1000.0
	>  workers :  1
	>  neg_dataroot :  /datasets/GeneralDatabases/ADEChallengeData2016
	>  paste_outliers :  True
	>  paste_outliers_val :  False
	>  rect_ood_prob :  0.0
	>  alpha_blend :  1.0
	>  paste_lower :  0
	>  neg_dataset :  ade_small
	>  horizon :  0.33
	>  max_ood_size :  192
	>  beta :  [0.01, 0.005, 0.05]
	>  wresnet_dir :  
	>  pretrained_weights :  ./weights/nopedestrian_12.pth
Current commit: 762794f38f7fa841e2ebf1e14efd1c53c18d03da on branch refs/heads/master

Created save directory.
Loaded 23037 train and 1070 val images for class configuration: 12_pedestrian_ood.
> Loaded 489 negative images.
Loaded model pretrained

EPOCH 1
 > LR set to (1.00E-06, 2.50E-07, )
-- Average train loss: 0.16
-- Train mIoU: 82.07%
++ Average precision: 22.96%
++ AUROC: 92.11%
++ FPR: 20.66%
++ Average validation loss: 0.15
++ Average validation accuracy: 95.43%
++ Validation mIoU: 73.63
>> Epoch 1: Saved best model so far.
>> Epoch 1: Saved model.

EPOCH 2
 > LR set to (9.70E-07, 2.43E-07, )
-- Average train loss: 0.15
-- Train mIoU: 82.18%
++ Average precision: 22.65%
++ AUROC: 92.41%
++ FPR: 19.53%
++ Average validation loss: 0.15
++ Average validation accuracy: 95.44%
++ Validation mIoU: 73.84
>> Epoch 2: Saved best model so far.
>> Epoch 2: Saved model.
<< Removed weights of epoch 1

EPOCH 3
 > LR set to (8.84E-07, 2.21E-07, )
-- Average train loss: 0.14
-- Train mIoU: 82.23%
++ Average precision: 23.77%
++ AUROC: 92.8%
++ FPR: 18.91%
++ Average validation loss: 0.15
++ Average validation accuracy: 95.42%
++ Validation mIoU: 73.68
>> Epoch 3: Saved model.
<< Removed weights of epoch 2

EPOCH 4
 > LR set to (7.53E-07, 1.88E-07, )
-- Average train loss: 0.13
-- Train mIoU: 82.46%
++ Average precision: 25.23%
++ AUROC: 93.6%
++ FPR: 17.13%
++ Average validation loss: 0.15
++ Average validation accuracy: 95.47%
++ Validation mIoU: 73.86
>> Epoch 4: Saved best model so far.
>> Epoch 4: Saved model.
<< Removed weights of epoch 3

EPOCH 5
 > LR set to (5.91E-07, 1.48E-07, )
-- Average train loss: 0.13
-- Train mIoU: 82.51%
++ Average precision: 24.92%
++ AUROC: 93.38%
++ FPR: 17.4%
++ Average validation loss: 0.15
++ Average validation accuracy: 95.44%
++ Validation mIoU: 73.73
>> Epoch 5: Saved model.
<< Removed weights of epoch 4

EPOCH 6
 > LR set to (4.19E-07, 1.05E-07, )
-- Average train loss: 0.12
-- Train mIoU: 82.33%
++ Average precision: 26.4%
++ AUROC: 94.03%
++ FPR: 16.21%
++ Average validation loss: 0.15
++ Average validation accuracy: 95.38%
++ Validation mIoU: 73.49
>> Epoch 6: Saved model.
<< Removed weights of epoch 5

EPOCH 7
 > LR set to (2.58E-07, 6.44E-08, )
-- Average train loss: 0.12
-- Train mIoU: 82.62%
++ Average precision: 27.27%
++ AUROC: 94.43%
++ FPR: 15.08%
++ Average validation loss: 0.14
++ Average validation accuracy: 95.47%
++ Validation mIoU: 73.82
>> Epoch 7: Saved model.
<< Removed weights of epoch 6

EPOCH 8
 > LR set to (1.26E-07, 3.15E-08, )
-- Average train loss: 0.12
-- Train mIoU: 82.35%
++ Average precision: 26.53%
++ AUROC: 93.96%
++ FPR: 16.31%
++ Average validation loss: 0.15
++ Average validation accuracy: 95.45%
++ Validation mIoU: 73.73
>> Epoch 8: Saved model.
<< Removed weights of epoch 7

EPOCH 9
 > LR set to (3.99E-08, 9.96E-09, )
-- Average train loss: 0.12
-- Train mIoU: 82.55%
++ Average precision: 26.32%
++ AUROC: 93.77%
++ FPR: 16.76%
++ Average validation loss: 0.14
++ Average validation accuracy: 95.49%
++ Validation mIoU: 73.77
>> Epoch 9: Saved model.
<< Removed weights of epoch 8

EPOCH 10
 > LR set to (1.00E-08, 2.50E-09, )
-- Average train loss: 0.12
-- Train mIoU: 82.78%
++ Average precision: 27.64%
++ AUROC: 94.57%
++ FPR: 14.79%
++ Average validation loss: 0.14
++ Average validation accuracy: 95.46%
++ Validation mIoU: 73.79
>> Epoch 10: Saved model.
<< Removed weights of epoch 9

Elapsed time: 39278.300100803375
